Multiple Models
…
Crear la función e iterar. functional programming con library(purrr), Usando map para aplicar la función del modelo a toda la lista de data frames.

Extraer parámetros de los modelos con library(broom) y la función glance().

#1. Cargamos los datos
gapminder

## # A tibble: 1,704 x 6
##    country     continent  year lifeExp      pop gdpPercap
##    <fct>       <fct>     <int>   <dbl>    <int>     <dbl>
##  1 Afghanistan Asia       1952    28.8  8425333      779.
##  2 Afghanistan Asia       1957    30.3  9240934      821.
##  3 Afghanistan Asia       1962    32.0 10267083      853.
##  4 Afghanistan Asia       1967    34.0 11537966      836.
##  5 Afghanistan Asia       1972    36.1 13079460      740.
##  6 Afghanistan Asia       1977    38.4 14880372      786.
##  7 Afghanistan Asia       1982    39.9 12881816      978.
##  8 Afghanistan Asia       1987    40.8 13867957      852.
##  9 Afghanistan Asia       1992    41.7 16317921      649.
## 10 Afghanistan Asia       1997    41.8 22227415      635.
## # ... with 1,694 more rows
…
Observen que para la mayoría de estos países el modelo se ajusta bastante bien (\(R^2\approx.97\)), sin embargo, para un grupo de paises particular el modelo parece no tener un ajuste adecuado?

¿Qué tienen estos países en común?

Bueno, al parecer todos estos paises son de África, ¿Por qué el modelo de regresión lineal en este caso no se ajusta tan bien como en la mayoría de los países?

#Unnest y plot  componentes de interés.

unnest(models,tidy)

## # A tibble: 284 x 8
##    country     rsq continent term     estimate std.error statistic  p.value
##    <fct>     <dbl> <fct>     <chr>       <dbl>     <dbl>     <dbl>    <dbl>
##  1 Afghanis~ 0.948 Asia      (Interc~   29.4     0.699       42.0  1.40e-12
##  2 Afghanis~ 0.948 Asia      year1950    0.275   0.0205      13.5  9.84e- 8
##  3 Albania   0.911 Europe    (Interc~   58.6     1.13        51.7  1.79e-13
##  4 Albania   0.911 Europe    year1950    0.335   0.0332      10.1  1.46e- 6
##  5 Algeria   0.985 Africa    (Interc~   42.2     0.756       55.8  8.22e-14
##  6 Algeria   0.985 Africa    year1950    0.569   0.0221      25.7  1.81e-10
##  7 Angola    0.888 Africa    (Interc~   31.7     0.804       39.4  2.63e-12
##  8 Angola    0.888 Africa    year1950    0.209   0.0235       8.90 4.59e- 6
##  9 Argentina 0.996 Americas  (Interc~   62.2     0.167      372.   4.80e-22
## 10 Argentina 0.996 Americas  year1950    0.232   0.00489     47.4  4.22e-13
## # ... with 274 more rows
…
