…
Otras estructuras incluyen datos de panel que básicamente agrupan series de corte transversal para diferentes momentos en el tiempo (ej. varios años).

## # A tibble: 50 x 7
##    country     continent  year lifeExp      pop gdpPercap year1950
##    <fct>       <fct>     <int>   <dbl>    <int>     <dbl>    <dbl>
##  1 Afghanistan Asia       1952    28.8  8425333      779.        2
##  2 Afghanistan Asia       1957    30.3  9240934      821.        7
##  3 Afghanistan Asia       1962    32.0 10267083      853.       12
##  4 Afghanistan Asia       1967    34.0 11537966      836.       17
##  5 Afghanistan Asia       1972    36.1 13079460      740.       22
##  6 Afghanistan Asia       1977    38.4 14880372      786.       27
##  7 Afghanistan Asia       1982    39.9 12881816      978.       32
##  8 Afghanistan Asia       1987    40.8 13867957      852.       37
##  9 Afghanistan Asia       1992    41.7 16317921      649.       42
## 10 Afghanistan Asia       1997    41.8 22227415      635.       47
## # ... with 40 more rows
…
