…
functional programming con library(purrr) map una función para toda lista de df

Extraer parametros de modelos con library(broom) glance().

Aplicación del enfoque de programación funcional.

continents<-gapminder%>%
select(country,continent)

## # A tibble: 1,704 x 6
##    country     continent  year lifeExp      pop gdpPercap
##    <fct>       <fct>     <int>   <dbl>    <int>     <dbl>
##  1 Afghanistan Asia       1952    28.8  8425333      779.
##  2 Afghanistan Asia       1957    30.3  9240934      821.
##  3 Afghanistan Asia       1962    32.0 10267083      853.
##  4 Afghanistan Asia       1967    34.0 11537966      836.
##  5 Afghanistan Asia       1972    36.1 13079460      740.
##  6 Afghanistan Asia       1977    38.4 14880372      786.
##  7 Afghanistan Asia       1982    39.9 12881816      978.
##  8 Afghanistan Asia       1987    40.8 13867957      852.
##  9 Afghanistan Asia       1992    41.7 16317921      649.
## 10 Afghanistan Asia       1997    41.8 22227415      635.
## # ... with 1,694 more rows
…
## Joining, by = "country"

## # A tibble: 1,704 x 8
##    country data       model   tidy     glance      rsq augment    continent
##    <fct>   <list>     <list>  <list>   <list>    <dbl> <list>     <fct>    
##  1 Brazil  <tibble [~ <S3: l~ <tibble~ <tibble ~ 0.998 <tibble [~ Americas 
##  2 Brazil  <tibble [~ <S3: l~ <tibble~ <tibble ~ 0.998 <tibble [~ Americas 
##  3 Brazil  <tibble [~ <S3: l~ <tibble~ <tibble ~ 0.998 <tibble [~ Americas 
##  4 Brazil  <tibble [~ <S3: l~ <tibble~ <tibble ~ 0.998 <tibble [~ Americas 
##  5 Brazil  <tibble [~ <S3: l~ <tibble~ <tibble ~ 0.998 <tibble [~ Americas 
##  6 Brazil  <tibble [~ <S3: l~ <tibble~ <tibble ~ 0.998 <tibble [~ Americas 
##  7 Brazil  <tibble [~ <S3: l~ <tibble~ <tibble ~ 0.998 <tibble [~ Americas 
##  8 Brazil  <tibble [~ <S3: l~ <tibble~ <tibble ~ 0.998 <tibble [~ Americas 
##  9 Brazil  <tibble [~ <S3: l~ <tibble~ <tibble ~ 0.998 <tibble [~ Americas 
## 10 Brazil  <tibble [~ <S3: l~ <tibble~ <tibble ~ 0.998 <tibble [~ Americas 
## # ... with 1,694 more rows

## # A tibble: 624 x 8
##    country data       model   tidy     glance      rsq augment    continent
##    <fct>   <list>     <list>  <list>   <list>    <dbl> <list>     <fct>    
##  1 Algeria <tibble [~ <S3: l~ <tibble~ <tibble ~ 0.985 <tibble [~ Africa   
##  2 Algeria <tibble [~ <S3: l~ <tibble~ <tibble ~ 0.985 <tibble [~ Africa   
##  3 Algeria <tibble [~ <S3: l~ <tibble~ <tibble ~ 0.985 <tibble [~ Africa   
##  4 Algeria <tibble [~ <S3: l~ <tibble~ <tibble ~ 0.985 <tibble [~ Africa   
##  5 Algeria <tibble [~ <S3: l~ <tibble~ <tibble ~ 0.985 <tibble [~ Africa   
##  6 Algeria <tibble [~ <S3: l~ <tibble~ <tibble ~ 0.985 <tibble [~ Africa   
##  7 Algeria <tibble [~ <S3: l~ <tibble~ <tibble ~ 0.985 <tibble [~ Africa   
##  8 Algeria <tibble [~ <S3: l~ <tibble~ <tibble ~ 0.985 <tibble [~ Africa   
##  9 Algeria <tibble [~ <S3: l~ <tibble~ <tibble ~ 0.985 <tibble [~ Africa   
## 10 Algeria <tibble [~ <S3: l~ <tibble~ <tibble ~ 0.985 <tibble [~ Africa   
## # ... with 614 more rows
…
modelos<-gapminder %>%mutate(year1950=year-1950)%>%
  group_by(country) %>%
  nest() %>%  
  mutate(fit = map(data, ~ lm(lifeExp ~ year1950, data = .x))) %>%
  mutate(rsq = map_dbl(fit, ~ summary(.x)[["r.squared"]]))%>% 
  arrange(rsq)%>%
  left_join(continents)

## Joining, by = "country"

modelos

## # A tibble: 1,704 x 5
##    country data              fit         rsq continent
##    <fct>   <list>            <list>    <dbl> <fct>    
##  1 Rwanda  <tibble [12 x 6]> <S3: lm> 0.0172 Africa   
##  2 Rwanda  <tibble [12 x 6]> <S3: lm> 0.0172 Africa   
##  3 Rwanda  <tibble [12 x 6]> <S3: lm> 0.0172 Africa   
##  4 Rwanda  <tibble [12 x 6]> <S3: lm> 0.0172 Africa   
##  5 Rwanda  <tibble [12 x 6]> <S3: lm> 0.0172 Africa   
##  6 Rwanda  <tibble [12 x 6]> <S3: lm> 0.0172 Africa   
##  7 Rwanda  <tibble [12 x 6]> <S3: lm> 0.0172 Africa   
##  8 Rwanda  <tibble [12 x 6]> <S3: lm> 0.0172 Africa   
##  9 Rwanda  <tibble [12 x 6]> <S3: lm> 0.0172 Africa   
## 10 Rwanda  <tibble [12 x 6]> <S3: lm> 0.0172 Africa   
## # ... with 1,694 more rows
